…
```
## `summarise()` ungrouping output (override with `.groups` argument)
```

```
## # A tibble: 95 x 2
##    PARAM              less_thans
##    <chr>                   <dbl>
##  1 BAP                     0.486
##  2 ICDP                    0.466
##  3 MBT                     0.458
##  4 DDDOP                   0.454
##  5 PB                      0.425
##  6 CB28                    0.408
##  7 Heptaklor epoksid       0.388
##  8 Mirex                   0.361
##  9 CB169                   0.350
## 10 alfa-Klordan (cis)      0.348
## # ... with 85 more rows
```
…
