…
```
##                          edf   Ref.df         F      p-value
## s(MYEAR)            2.920255 2.920255 132.40563 1.352472e-72
## s(Dist_along_coast) 1.000001 1.000001  25.52645 4.682021e-07
```

```r
dat %>% filter(grepl("QCB", PARAM))
```

```
## # A tibble: 6,594 x 25
##    MYEAR STATION_CODE LATIN_NAME TISSUE_NAME SAMPLE_NO2 PARAM FLAG1 DRYWT
##    <dbl> <chr>        <chr>      <chr>            <dbl> <chr> <chr> <dbl>
##  1  1996 10A2         Mytilus e~ Whole soft~          1 QCB   <      19  
##  2  1996 10A2         Mytilus e~ Whole soft~          2 QCB   <      20.4
##  3  1996 10A2         Mytilus e~ Whole soft~          3 QCB   <      20.5
##  4  1997 10A2         Mytilus e~ Whole soft~          1 QCB   <      17.4
##  5  1997 10A2         Mytilus e~ Whole soft~          2 QCB   <      16.2
##  6  1997 10A2         Mytilus e~ Whole soft~          3 QCB   <      16.1
##  7  1999 10A2         Mytilus e~ Whole soft~          1 QCB   <      17.2
##  8  1999 10A2         Mytilus e~ Whole soft~          2 QCB   <      18.6
##  9  1999 10A2         Mytilus e~ Whole soft~          3 QCB   <      17.6
## 10  2000 10A2         Mytilus e~ Whole soft~          1 QCB   <      17.9
## # ... with 6,584 more rows, and 17 more variables: FAT_PERC <dbl>, LNMEA <dbl>,
## #   UNIT <chr>, VALUE_WW <dbl>, VALUE_DW <dbl>, VALUE_FB <dbl>,
## #   VALUE_WWa <dbl>, VALUE_DWa <dbl>, VALUE_FBa <dbl>, UNCERTAINTY <dbl>,
## #   QUANTIFICATION_LIMIT <dbl>, Delta13C <dbl>, Delta15N <dbl>,
## #   Mussel_station <chr>, Delta13C_mussel <dbl>, Delta15N_mussel <dbl>,
## #   TL <dbl>
```
…
